pipeline.vcd
$date
	Fri Apr 03 21:36:54 2026
$end
$version
	Icarus Verilog
$end
$timescale
	1ps
$end
$scope module tb_pipeline $end
$var wire 32 ! current_result [31:0] $end
$var wire 1 " dmem_read_valid $end
$var wire 1 # dmem_write_valid $end
$var wire 1 $ inst_mem_is_valid $end
$var wire 32 % pc_out [31:0] $end
$var wire 32 & inst_mem_read_data [31:0] $end
$var wire 1 ' inst_mem_is_ready $end
$var wire 32 ( inst_mem_address [31:0] $end
$var wire 1 ) exception $end
$var wire 1 * dmem_write_ready $end
$var wire 32 + dmem_write_data [31:0] $end
$var wire 4 , dmem_write_byte [3:0] $end
$var wire 32 - dmem_write_address [31:0] $end
$var wire 1 . dmem_read_ready $end
$var wire 32 / dmem_read_data [31:0] $end
$var wire 32 0 dmem_read_address [31:0] $end
$var reg 1 1 clk $end
$var reg 32 2 prev_logged_pc [31:0] $end
$var reg 32 3 prev_result [31:0] $end
$var reg 1 4 reset $end
$var integer 32 5 f [31:0] $end
$scope module DMEM $end
$var wire 1 1 clk $end
$var wire 4 6 wstrb [3:0] $end
$var wire 10 7 windex [9:0] $end
$var wire 1 * we $end
$var wire 32 8 wdata [31:0] $end
$var wire 32 9 waddr [31:0] $end
$var wire 10 : rindex [9:0] $end
$var wire 1 . re $end
$var wire 32 ; raddr [31:0] $end
$var reg 32 < rdata [31:0] $end
$upscope $end
$scope module DUT $end
$var wire 1 1 clk $end
$var wire 32 = dmem_read_data_temp [31:0] $end
$var wire 1 " dmem_read_valid $end
$var wire 1 # dmem_write_valid $end
$var wire 1 > ex_alu_to_reg $end
$var wire 1 ) exception $end
$var wire 1 $ inst_mem_is_valid $end
$var wire 32 ? pc_out [31:0] $end
$var wire 1 4 reset $end
$var wire 1 @ stage_flush_ex $end
$var wire 1 A stage_stall_ex $end
$var wire 1 B stage_stall_id $end
$var wire 1 C stage_stall_if $end
$var wire 1 D stall $end
$var wire 32 E wb_result [31:0] $end
$var wire 5 F wb_rd [4:0] $end
$var wire 1 G wb_mem_to_reg $end
$var wire 2 H wb_mem_read_offset [1:0] $end
$var wire 32 I wb_ex_result [31:0] $end
$var wire 1 J wb_csr_we $end
$var wire 32 K wb_csr_wdata [31:0] $end
$var wire 12 L wb_csr_addr [11:0] $end
$var wire 1 M wb_alu_to_reg $end
$var wire 3 N wb_alu_op [2:0] $end
$var wire 1 O stall_if_haz $end
$var wire 1 P stall_id_haz $end
$var wire 1 Q stall_ex_request $end
$var wire 1 R stall_ex_haz $end
$var wire 32 S mem_write_data [31:0] $end
$var wire 5 T mem_rd [4:0] $end
$var wire 1 U mem_mem_write $end
$var wire 1 V mem_mem_to_reg $end
$var wire 1 W mem_mem_read $end
$var wire 32 X mem_ex_result [31:0] $end
$var wire 1 Y mem_csr_we $end
$var wire 32 Z mem_csr_wdata [31:0] $end
$var wire 12 [ mem_csr_addr [11:0] $end
$var wire 1 \ mem_alu_to_reg $end
$var wire 3 ] mem_alu_op [2:0] $end
$var wire 32 ^ inst_mem_read_data [31:0] $end
$var wire 1 ' inst_mem_is_ready $end
$var wire 32 _ inst_mem_address [31:0] $end
$var wire 32 ` if_pc_out [31:0] $end
$var wire 5 a id_rs2 [4:0] $end
$var wire 5 b id_rs1 [4:0] $end
$var wire 32 c id_reg_rdata2 [31:0] $end
$var wire 32 d id_reg_rdata1 [31:0] $end
$var wire 5 e id_rd [4:0] $end
$var wire 32 f id_pc [31:0] $end
$var wire 1 g id_mult_div_en $end
$var wire 1 h id_mem_write $end
$var wire 1 i id_mem_to_reg $end
$var wire 1 j id_mem_read $end
$var wire 1 k id_lui $end
$var wire 1 l id_jalr $end
$var wire 1 m id_jal $end
$var wire 1 n id_is_csr $end
$var wire 32 o id_inst [31:0] $end
$var wire 1 p id_immediate_sel $end
$var wire 32 q id_immediate [31:0] $end
$var wire 1 r id_illegal_inst $end
$var wire 12 s id_csr_addr [11:0] $end
$var wire 1 t id_branch $end
$var wire 1 u id_arithsubtype $end
$var wire 3 v id_alu_op [2:0] $end
$var wire 1 w id_alu $end
$var wire 2 x forward_b_sel [1:0] $end
$var wire 2 y forward_a_sel [1:0] $end
$var wire 1 z flush_if_haz $end
$var wire 1 { flush_id_haz $end
$var wire 1 | flush_ex_haz $end
$var wire 32 } ex_write_data_calc [31:0] $end
$var wire 5 ~ ex_rs2 [4:0] $end
$var wire 5 !" ex_rs1 [4:0] $end
$var wire 32 "" ex_result_calc [31:0] $end
$var wire 32 #" ex_reg_rdata2 [31:0] $end
$var wire 32 $" ex_reg_rdata1 [31:0] $end
$var wire 5 %" ex_rd [4:0] $end
$var wire 32 &" ex_pc [31:0] $end
$var wire 1 '" ex_mult_div_en $end
$var wire 1 (" ex_mem_write $end
$var wire 1 )" ex_mem_to_reg $end
$var wire 1 *" ex_mem_read $end
$var wire 1 +" ex_lui $end
$var wire 1 ," ex_jalr $end
$var wire 1 -" ex_jal $end
$var wire 1 ." ex_is_csr $end
$var wire 1 /" ex_immediate_sel $end
$var wire 32 0" ex_immediate [31:0] $end
$var wire 1 1" ex_illegal_inst $end
$var wire 1 2" ex_csr_we $end
$var wire 32 3" ex_csr_wdata [31:0] $end
$var wire 12 4" ex_csr_addr [11:0] $end
$var wire 1 5" ex_branch $end
$var wire 1 6" ex_arithsubtype $end
$var wire 3 7" ex_alu_op [2:0] $end
$var wire 1 8" ex_alu $end
$var wire 1 * dmem_write_ready $end
$var wire 32 9" dmem_write_data [31:0] $end
$var wire 4 :" dmem_write_byte [3:0] $end
$var wire 32 ;" dmem_write_address [31:0] $end
$var wire 1 . dmem_read_ready $end
$var wire 32 <" dmem_read_address [31:0] $end
$var wire 32 =" csr_rdata [31:0] $end
$var wire 32 >" branch_target [31:0] $end
$var wire 1 ?" branch_taken $end
$var parameter 32 @" RESET $end
$var integer 32 A" i [31:0] $end
$scope module u_csr_file $end
$var wire 1 1 clk $end
$var wire 32 B" exception_cause [31:0] $end
$var wire 32 C" exception_pc [31:0] $end
$var wire 1 D" exception_trigger $end
$var wire 32 E" exception_vector [31:0] $end
$var wire 1 4 reset $end
$var wire 1 J csr_we $end
$var wire 32 F" csr_wdata [31:0] $end
$var wire 12 G" csr_waddr [11:0] $end
$var wire 12 H" csr_raddr [11:0] $end
$var parameter 12 I" MCAUSE $end
$var parameter 12 J" MEPC $end
$var parameter 12 K" MISA $end
$var parameter 12 L" MSTATUS $end
$var parameter 12 M" MTVEC $end
$var reg 32 N" csr_rdata [31:0] $end
$var reg 32 O" mcause [31:0] $end
$var reg 32 P" mepc [31:0] $end
$var reg 32 Q" mstatus [31:0] $end
$var reg 32 R" mtvec [31:0] $end
$upscope $end
$scope module u_ex_mem_reg $end
$var wire 1 > alu_to_reg_i $end
$var wire 1 1 clk $end
$var wire 1 @ flush $end
$var wire 1 S" mem_read_i $end
$var wire 1 T" mem_write_i $end
$var wire 1 4 reset $end
$var wire 1 D stall $end
$var wire 32 U" write_data_i [31:0] $end
$var wire 1 )" mem_to_reg_i $end
$var wire 32 V" ex_result_i [31:0] $end
$var wire 5 W" dest_reg_sel_i [4:0] $end
$var wire 1 2" csr_we_i $end
$var wire 32 X" csr_wdata_i [31:0] $end
$var wire 12 Y" csr_addr_i [11:0] $end
$var wire 3 Z" alu_op_i [2:0] $end
$var reg 3 [" alu_op_o [2:0] $end
$var reg 1 \ alu_to_reg_o $end
$var reg 12 \" csr_addr_o [11:0] $end
$var reg 32 ]" csr_wdata_o [31:0] $end
$var reg 1 Y csr_we_o $end
$var reg 5 ^" dest_reg_sel_o [4:0] $end
$var reg 32 _" ex_result_o [31:0] $end
$var reg 1 W mem_read_o $end
$var reg 1 V mem_to_reg_o $end
$var reg 1 U mem_write_o $end
$var reg 32 `" write_data_o [31:0] $end
$upscope $end
$scope module u_ex_stage $end
$var wire 1 1 clk $end
$var wire 32 a" csr_rdata_i [31:0] $end
$var wire 32 b" forward_ex_mem_val [31:0] $end
$var wire 1 c" mult_div_start $end
$var wire 1 4 reset $end
$var wire 1 Q stall_ex_request $end
$var wire 32 d" write_data_out [31:0] $end
$var wire 32 e" reg_rdata2_i [31:0] $end
$var wire 32 f" reg_rdata1_i [31:0] $end
$var wire 32 g" pc_i [31:0] $end
$var wire 32 h" mult_div_result_val [31:0] $end
$var wire 1 i" mult_div_ready $end
$var wire 1 '" mult_div_en_i $end
$var wire 1 j" mult_div_busy $end
$var wire 1 +" lui_i $end
$var wire 1 ," jalr_i $end
$var wire 1 -" jal_i $end
$var wire 1 ." is_csr_i $end
$var wire 1 /" immediate_sel_i $end
$var wire 32 k" immediate_i [31:0] $end
$var wire 32 l" forward_mem_wb_val [31:0] $end
$var wire 2 m" forward_b [1:0] $end
$var wire 2 n" forward_a [1:0] $end
$var wire 12 o" csr_addr_i [11:0] $end
$var wire 1 5" branch_i $end
$var wire 1 6" arithsubtype_i $end
$var wire 32 p" alu_operand2 [31:0] $end
$var wire 32 q" alu_operand1 [31:0] $end
$var wire 3 r" alu_op_i [2:0] $end
$var wire 1 8" alu_i $end
$var parameter 3 s" ADD $end
$var parameter 3 t" AND $end
$var parameter 7 u" ARITHI $end
$var parameter 7 v" ARITHR $end
$var parameter 3 w" BEQ $end
$var parameter 3 x" BGE $end
$var parameter 3 y" BGEU $end
$var parameter 3 z" BLT $end
$var parameter 3 {" BLTU $end
$var parameter 3 |" BNE $end
$var parameter 7 }" BRANCH $end
$var parameter 3 ~" CSRRC $end
$var parameter 3 !# CSRRCI $end
$var parameter 3 "# CSRRS $end
$var parameter 3 ## CSRRSI $end
$var parameter 3 $# CSRRW $end
$var parameter 3 %# CSRRWI $end
$var parameter 3 &# DIV $end
$var parameter 3 '# DIVU $end
$var parameter 7 (# JAL $end
$var parameter 7 )# JALR $end
$var parameter 3 *# LB $end
$var parameter 3 +# LBU $end
$var parameter 3 ,# LH $end
$var parameter 3 -# LHU $end
$var parameter 7 .# LOAD $end
$var parameter 7 /# LUI $end
$var parameter 3 0# LW $end
$var parameter 3 1# MUL $end
$var parameter 3 2# MULH $end
$var parameter 3 3# MULHSU $end
$var parameter 3 4# MULHU $end
$var parameter 32 5# NOP $end
$var parameter 3 6# OR $end
$var parameter 3 7# PRIV $end
$var parameter 3 8# REM $end
$var parameter 3 9# REMU $end
$var parameter 3 :# SB $end
$var parameter 3 ;# SH $end
$var parameter 3 <# SLL $end
$var parameter 3 =# SLT $end
$var parameter 3 ># SLTU $end
$var parameter 3 ?# SR $end
$var parameter 7 @# STORE $end
$var parameter 3 A# SW $end
$var parameter 7 B# SYSTEM $end
$var parameter 3 C# XOR $end
$var reg 1 ?" branch_taken $end
$var reg 32 D# branch_target [31:0] $end
$var reg 32 E# csr_wdata [31:0] $end
$var reg 1 2" csr_we $end
$var reg 32 F# ex_result [31:0] $end
$var reg 32 G# fw_operand1 [31:0] $end
$var reg 32 H# fw_operand2 [31:0] $end
$scope module u_mult_div $end
$var wire 1 1 clk $end
$var wire 1 I# div_sign_quo $end
$var wire 1 J# is_signed_div $end
$var wire 1 K# is_upper_mult $end
$var wire 1 L# mult_sign_ss $end
$var wire 1 4 reset $end
$var wire 32 M# rs1_data [31:0] $end
$var wire 32 N# rs2_data [31:0] $end
$var wire 1 c" start $end
$var wire 1 i" ready $end
$var wire 3 O# op [2:0] $end
$var wire 33 P# mult_step_sum [32:0] $end
$var wire 1 Q# mult_sign_su $end
$var wire 32 R# mult_final_out [31:0] $end
$var wire 64 S# mult_final_acc [63:0] $end
$var wire 1 T# is_rem $end
$var wire 1 U# is_div $end
$var wire 32 V# div_upper [31:0] $end
$var wire 32 W# div_sub_val [31:0] $end
$var wire 1 X# div_sub_ok $end
$var wire 1 Y# div_sign_rem $end
$var wire 64 Z# div_shifted [63:0] $end
$var wire 32 [# div_quo_raw [31:0] $end
$var wire 32 \# div_quo_out [31:0] $end
$var wire 32 ]# div_mod_raw [31:0] $end
$var wire 32 ^# div_mod_out [31:0] $end
$var wire 1 j" busy $end
$var wire 32 _# abs_rs2 [31:0] $end
$var wire 32 `# abs_rs1 [31:0] $end
$var parameter 2 a# STATE_DIV $end
$var parameter 2 b# STATE_DONE $end
$var parameter 2 c# STATE_IDLE $end
$var parameter 2 d# STATE_MULT $end
$var reg 64 e# accumulator [63:0] $end
$var reg 6 f# counter [5:0] $end
$var reg 32 g# divisor [31:0] $end
$var reg 1 h# out_sign $end
$var reg 1 i# rem_sign $end
$var reg 32 j# result [31:0] $end
$var reg 2 k# state [1:0] $end
$upscope $end
$upscope $end
$scope module u_hazard_unit $end
$var wire 1 ?" branch_taken $end
$var wire 5 l# ex_mem_rd [4:0] $end
$var wire 1 \ ex_mem_reg_write $end
$var wire 1 Q stall_ex_request $end
$var wire 1 M mem_wb_reg_write $end
$var wire 5 m# mem_wb_rd [4:0] $end
$var wire 5 n# if_id_rs2 [4:0] $end
$var wire 5 o# if_id_rs1 [4:0] $end
$var wire 5 p# id_ex_rs2 [4:0] $end
$var wire 5 q# id_ex_rs1 [4:0] $end
$var wire 5 r# id_ex_rd [4:0] $end
$var wire 1 *" id_ex_mem_read $end
$var reg 1 | flush_ex $end
$var reg 1 { flush_id $end
$var reg 1 z flush_if $end
$var reg 2 s# forward_a [1:0] $end
$var reg 2 t# forward_b [1:0] $end
$var reg 1 R stall_ex $end
$var reg 1 P stall_id $end
$var reg 1 O stall_if $end
$upscope $end
$scope module u_id_ex_reg $end
$var wire 1 1 clk $end
$var wire 1 { flush $end
$var wire 32 u# reg_rdata1_i [31:0] $end
$var wire 32 v# reg_rdata2_i [31:0] $end
$var wire 1 4 reset $end
$var wire 1 A stall $end
$var wire 5 w# src2_sel_i [4:0] $end
$var wire 5 x# src1_sel_i [4:0] $end
$var wire 32 y# pc_i [31:0] $end
$var wire 1 g mult_div_en_i $end
$var wire 1 h mem_write_i $end
$var wire 1 i mem_to_reg_i $end
$var wire 1 j mem_read_i $end
$var wire 1 k lui_i $end
$var wire 1 l jalr_i $end
$var wire 1 m jal_i $end
$var wire 1 n is_csr_i $end
$var wire 1 p immediate_sel_i $end
$var wire 32 z# immediate_i [31:0] $end
$var wire 1 r illegal_inst_i $end
$var wire 5 {# dest_reg_sel_i [4:0] $end
$var wire 12 |# csr_addr_i [11:0] $end
$var wire 1 t branch_i $end
$var wire 1 u arithsubtype_i $end
$var wire 3 }# alu_op_i [2:0] $end
$var wire 1 w alu_i $end
$var reg 1 8" alu_o $end
$var reg 3 ~# alu_op_o [2:0] $end
$var reg 1 6" arithsubtype_o $end
$var reg 1 5" branch_o $end
$var reg 12 !$ csr_addr_o [11:0] $end
$var reg 5 "$ dest_reg_sel_o [4:0] $end
$var reg 1 1" illegal_inst_o $end
$var reg 32 #$ immediate_o [31:0] $end
$var reg 1 /" immediate_sel_o $end
$var reg 1 ." is_csr_o $end
$var reg 1 -" jal_o $end
$var reg 1 ," jalr_o $end
$var reg 1 +" lui_o $end
$var reg 1 *" mem_read_o $end
$var reg 1 )" mem_to_reg_o $end
$var reg 1 (" mem_write_o $end
$var reg 1 '" mult_div_en_o $end
$var reg 32 $$ pc_o [31:0] $end
$var reg 32 %$ reg_rdata1_o [31:0] $end
$var reg 32 &$ reg_rdata2_o [31:0] $end
$var reg 5 '$ src1_sel_o [4:0] $end
$var reg 5 ($ src2_sel_o [4:0] $end
$upscope $end
$scope module u_id_stage $end
$var wire 1 w alu $end
$var wire 1 u arithsubtype $end
$var wire 1 p immediate_sel $end
$var wire 1 n is_csr $end
$var wire 1 g mult_div_en $end
$var wire 5 )$ src2_sel [4:0] $end
$var wire 5 *$ src1_sel [4:0] $end
$var wire 7 +$ opcode [6:0] $end
$var wire 1 h mem_write $end
$var wire 1 i mem_to_reg $end
$var wire 1 j mem_read $end
$var wire 1 k lui $end
$var wire 1 l jalr $end
$var wire 1 m jal $end
$var wire 32 ,$ instruction_i [31:0] $end
$var wire 5 -$ dest_reg_sel [4:0] $end
$var wire 12 .$ csr_addr [11:0] $end
$var wire 1 t branch $end
$var wire 3 /$ alu_op [2:0] $end
$var parameter 3 0$ ADD $end
$var parameter 3 1$ AND $end
$var parameter 7 2$ ARITHI $end
$var parameter 7 3$ ARITHR $end
$var parameter 3 4$ BEQ $end
$var parameter 3 5$ BGE $end
$var parameter 3 6$ BGEU $end
$var parameter 3 7$ BLT $end
$var parameter 3 8$ BLTU $end
$var parameter 3 9$ BNE $end
$var parameter 7 :$ BRANCH $end
$var parameter 3 ;$ CSRRC $end
$var parameter 3 <$ CSRRCI $end
$var parameter 3 =$ CSRRS $end
$var parameter 3 >$ CSRRSI $end
$var parameter 3 ?$ CSRRW $end
$var parameter 3 @$ CSRRWI $end
$var parameter 3 A$ DIV $end
$var parameter 3 B$ DIVU $end
$var parameter 7 C$ JAL $end
$var parameter 7 D$ JALR $end
$var parameter 3 E$ LB $end
$var parameter 3 F$ LBU $end
$var parameter 3 G$ LH $end
$var parameter 3 H$ LHU $end
$var parameter 7 I$ LOAD $end
$var parameter 7 J$ LUI $end
$var parameter 3 K$ LW $end
$var parameter 3 L$ MUL $end
$var parameter 3 M$ MULH $end
$var parameter 3 N$ MULHSU $end
$var parameter 3 O$ MULHU $end
$var parameter 32 P$ NOP $end
$var parameter 3 Q$ OR $end
$var parameter 3 R$ PRIV $end
$var parameter 3 S$ REM $end
$var parameter 3 T$ REMU $end
$var parameter 3 U$ SB $end
$var parameter 3 V$ SH $end
$var parameter 3 W$ SLL $end
$var parameter 3 X$ SLT $end
$var parameter 3 Y$ SLTU $end
$var parameter 3 Z$ SR $end
$var parameter 7 [$ STORE $end
$var parameter 3 \$ SW $end
$var parameter 7 ]$ SYSTEM $end
$var parameter 3 ^$ XOR $end
$var reg 1 r illegal_inst $end
$var reg 32 _$ immediate [31:0] $end
$upscope $end
$scope module u_if_id_reg $end
$var wire 1 1 clk $end
$var wire 1 z flush $end
$var wire 1 $ inst_mem_is_valid $end
$var wire 1 4 reset $end
$var wire 1 B stall $end
$var wire 32 `$ inst_mem_read_data [31:0] $end
$var wire 32 a$ if_pc [31:0] $end
$var wire 32 b$ id_instruction [31:0] $end
$var parameter 32 c$ NOP_INSTR $end
$var reg 32 d$ id_pc [31:0] $end
$var reg 1 e$ id_valid $end
$upscope $end
$scope module u_if_stage $end
$var wire 1 ?" branch_taken $end
$var wire 32 f$ branch_target [31:0] $end
$var wire 1 1 clk $end
$var wire 32 g$ inst_mem_address [31:0] $end
$var wire 1 ' inst_mem_is_ready $end
$var wire 32 h$ pc_o [31:0] $end
$var wire 1 4 reset $end
$var wire 1 C stall $end
$var parameter 32 i$ RESET_PC $end
$var reg 32 j$ pc_reg [31:0] $end
$upscope $end
$scope module u_mem_stage $end
$var wire 3 k$ alu_op_i [2:0] $end
$var wire 32 l$ dmem_read_address [31:0] $end
$var wire 1 . dmem_read_ready $end
$var wire 32 m$ ex_result_i [31:0] $end
$var wire 1 W mem_read_i $end
$var wire 1 U mem_write_i $end
$var wire 32 n$ write_data_i [31:0] $end
$var parameter 3 o$ ADD $end
$var parameter 3 p$ AND $end
$var parameter 7 q$ ARITHI $end
$var parameter 7 r$ ARITHR $end
$var parameter 3 s$ BEQ $end
$var parameter 3 t$ BGE $end
$var parameter 3 u$ BGEU $end
$var parameter 3 v$ BLT $end
$var parameter 3 w$ BLTU $end
$var parameter 3 x$ BNE $end
$var parameter 7 y$ BRANCH $end
$var parameter 3 z$ CSRRC $end
$var parameter 3 {$ CSRRCI $end
$var parameter 3 |$ CSRRS $end
$var parameter 3 }$ CSRRSI $end
$var parameter 3 ~$ CSRRW $end
$var parameter 3 !% CSRRWI $end
$var parameter 3 "% DIV $end
$var parameter 3 #% DIVU $end
$var parameter 7 $% JAL $end
$var parameter 7 %% JALR $end
$var parameter 3 &% LB $end
$var parameter 3 '% LBU $end
$var parameter 3 (% LH $end
$var parameter 3 )% LHU $end
$var parameter 7 *% LOAD $end
$var parameter 7 +% LUI $end
$var parameter 3 ,% LW $end
$var parameter 3 -% MUL $end
$var parameter 3 .% MULH $end
$var parameter 3 /% MULHSU $end
$var parameter 3 0% MULHU $end
$var parameter 32 1% NOP $end
$var parameter 3 2% OR $end
$var parameter 3 3% PRIV $end
$var parameter 3 4% REM $end
$var parameter 3 5% REMU $end
$var parameter 3 6% SB $end
$var parameter 3 7% SH $end
$var parameter 3 8% SLL $end
$var parameter 3 9% SLT $end
$var parameter 3 :% SLTU $end
$var parameter 3 ;% SR $end
$var parameter 7 <% STORE $end
$var parameter 3 =% SW $end
$var parameter 7 >% SYSTEM $end
$var parameter 3 ?% XOR $end
$var reg 32 @% dmem_write_address [31:0] $end
$var reg 4 A% dmem_write_byte [3:0] $end
$var reg 32 B% dmem_write_data [31:0] $end
$var reg 1 * dmem_write_ready $end
$upscope $end
$scope module u_mem_wb_reg $end
$var wire 3 C% alu_op_i [2:0] $end
$var wire 1 \ alu_to_reg_i $end
$var wire 1 1 clk $end
$var wire 12 D% csr_addr_i [11:0] $end
$var wire 32 E% csr_wdata_i [31:0] $end
$var wire 1 Y csr_we_i $end
$var wire 5 F% dest_reg_sel_i [4:0] $end
$var wire 32 G% ex_result_i [31:0] $end
$var wire 2 H% mem_read_address_offset_i [1:0] $end
$var wire 1 V mem_to_reg_i $end
$var wire 1 4 reset $end
$var wire 1 D stall $end
$var reg 3 I% alu_op_o [2:0] $end
$var reg 1 M alu_to_reg_o $end
$var reg 12 J% csr_addr_o [11:0] $end
$var reg 32 K% csr_wdata_o [31:0] $end
$var reg 1 J csr_we_o $end
$var reg 5 L% dest_reg_sel_o [4:0] $end
$var reg 32 M% ex_result_o [31:0] $end
$var reg 2 N% mem_read_address_offset_o [1:0] $end
$var reg 1 G mem_to_reg_o $end
$upscope $end
$scope module u_wb_stage $end
$var wire 3 O% alu_op_i [2:0] $end
$var wire 32 P% dmem_read_data_i [31:0] $end
$var wire 32 Q% ex_result_i [31:0] $end
$var wire 2 R% mem_read_address_offset_i [1:0] $end
$var wire 1 G mem_to_reg_i $end
$var parameter 3 S% ADD $end
$var parameter 3 T% AND $end
$var parameter 7 U% ARITHI $end
$var parameter 7 V% ARITHR $end
$var parameter 3 W% BEQ $end
$var parameter 3 X% BGE $end
$var parameter 3 Y% BGEU $end
$var parameter 3 Z% BLT $end
$var parameter 3 [% BLTU $end
$var parameter 3 \% BNE $end
$var parameter 7 ]% BRANCH $end
$var parameter 3 ^% CSRRC $end
$var parameter 3 _% CSRRCI $end
$var parameter 3 `% CSRRS $end
$var parameter 3 a% CSRRSI $end
$var parameter 3 b% CSRRW $end
$var parameter 3 c% CSRRWI $end
$var parameter 3 d% DIV $end
$var parameter 3 e% DIVU $end
$var parameter 7 f% JAL $end
$var parameter 7 g% JALR $end
$var parameter 3 h% LB $end
$var parameter 3 i% LBU $end
$var parameter 3 j% LH $end
$var parameter 3 k% LHU $end
$var parameter 7 l% LOAD $end
$var parameter 7 m% LUI $end
$var parameter 3 n% LW $end
$var parameter 3 o% MUL $end
$var parameter 3 p% MULH $end
$var parameter 3 q% MULHSU $end
$var parameter 3 r% MULHU $end
$var parameter 32 s% NOP $end
$var parameter 3 t% OR $end
$var parameter 3 u% PRIV $end
$var parameter 3 v% REM $end
$var parameter 3 w% REMU $end
$var parameter 3 x% SB $end
$var parameter 3 y% SH $end
$var parameter 3 z% SLL $end
$var parameter 3 {% SLT $end
$var parameter 3 |% SLTU $end
$var parameter 3 }% SR $end
$var parameter 7 ~% STORE $end
$var parameter 3 !& SW $end
$var parameter 7 "& SYSTEM $end
$var parameter 3 #& XOR $end
$var reg 32 $& formatted_mem_read [31:0] $end
$var reg 32 %& wb_result_o [31:0] $end
$upscope $end
$upscope $end
$scope module IMEM $end
$var wire 1 1 clk $end
$var wire 32 && pc [31:0] $end
$var reg 32 '& instr [31:0] $end
$upscope $end
$upscope $end
$enddefinitions $end
$comment Show the parameter values. $end
$dumpall
b100 #&
b1110011 "&
b10 !&
b100011 ~%
b101 }%
b11 |%
b10 {%
b1 z%
b1 y%
b0 x%
b111 w%
b110 v%
b0 u%
b110 t%
b10011 s%
b11 r%
b10 q%
b1 p%
b0 o%
b10 n%
b110111 m%
b11 l%
b101 k%
b1 j%
b100 i%
b0 h%
b1100111 g%
b1101111 f%
b101 e%
b100 d%
b101 c%
b1 b%
b110 a%
b10 `%
b111 _%
b11 ^%
b1100011 ]%
b1 \%
b110 [%
b100 Z%
b111 Y%
b101 X%
b0 W%
b110011 V%
b10011 U%
b111 T%
b0 S%
b100 ?%
b1110011 >%
b10 =%
b100011 <%
b101 ;%
b11 :%
b10 9%
b1 8%
b1 7%
b0 6%
b111 5%
b110 4%
b0 3%
b110 2%
b10011 1%
b11 0%
b10 /%
b1 .%
b0 -%
b10 ,%
b110111 +%
b11 *%
b101 )%
b1 (%
b100 '%
b0 &%
b1100111 %%
b1101111 $%
b101 #%
b100 "%
b101 !%
b1 ~$
b110 }$
b10 |$
b111 {$
b11 z$
b1100011 y$
b1 x$
b110 w$
b100 v$
b111 u$
b101 t$
b0 s$
b110011 r$
b10011 q$
b111 p$
b0 o$
b0 i$
b10011 c$
b100 ^$
b1110011 ]$
b10 \$
b100011 [$
b101 Z$
b11 Y$
b10 X$
b1 W$
b1 V$
b0 U$
b111 T$
b110 S$
b0 R$
b110 Q$
b10011 P$
b11 O$
b10 N$
b1 M$
b0 L$
b10 K$
b110111 J$
b11 I$
b101 H$
b1 G$
b100 F$
b0 E$
b1100111 D$
b1101111 C$
b101 B$
b100 A$
b101 @$
b1 ?$
b110 >$
b10 =$
b111 <$
b11 ;$
b1100011 :$
b1 9$
b110 8$
b100 7$
b111 6$
b101 5$
b0 4$
b110011 3$
b10011 2$
b111 1$
b0 0$
b1 d#
b0 c#
b11 b#
b10 a#
b100 C#
b1110011 B#
b10 A#
b100011 @#
b101 ?#
b11 >#
b10 =#
b1 <#
b1 ;#
b0 :#
b111 9#
b110 8#
b0 7#
b110 6#
b10011 5#
b11 4#
b10 3#
b1 2#
b0 1#
b10 0#
b110111 /#
b11 .#
b101 -#
b1 ,#
b100 +#
b0 *#
b1100111 )#
b1101111 (#
b101 '#
b100 &#
b101 %#
b1 $#
b110 ##
b10 "#
b111 !#
b11 ~"
b1100011 }"
b1 |"
b110 {"
b100 z"
b111 y"
b101 x"
b0 w"
b110011 v"
b10011 u"
b111 t"
b0 s"
b1100000101 M"
b1100000000 L"
b1100000001 K"
b1101000001 J"
b1101000010 I"
b0 @"
$end
#0
$dumpvars
bx '&
b0 &&
b0 %&
bx $&
b0 R%
b0 Q%
bx P%
b0 O%
b0 N%
b0 M%
b0 L%
b0 K%
b0 J%
b0 I%
b0 H%
b0 G%
b0 F%
b0 E%
b0 D%
b0 C%
b0 B%
b0 A%
b0 @%
b0 n$
b0 m$
b0 l$
b0 k$
b0 j$
b0 h$
b0 g$
b0 f$
0e$
b0 d$
b10011 b$
b0 a$
bx `$
b0 _$
b0 /$
b0 .$
b0 -$
b10011 ,$
b10011 +$
b0 *$
b0 )$
b0 ($
b0 '$
b0 &$
b0 %$
b0 $$
b0 #$
b0 "$
b0 !$
b0 ~#
b0 }#
b0 |#
b0 {#
b0 z#
b0 y#
b0 x#
b0 w#
b0 v#
b0 u#
b0 t#
b0 s#
b0 r#
b0 q#
b0 p#
b0 o#
b0 n#
b0 m#
b0 l#
b0 k#
b0 j#
0i#
0h#
b0 g#
b0 f#
b0 e#
b0 `#
b0 _#
b0 ^#
b0 ]#
b0 \#
b0 [#
b0 Z#
0Y#
1X#
b0 W#
b0 V#
0U#
0T#
b0 S#
b0 R#
0Q#
b0 P#
b0 O#
b0 N#
b0 M#
0L#
0K#
0J#
0I#
b0 H#
b0 G#
b0 F#
b0 E#
b0 D#
b0 r"
b0 q"
b0 p"
b0 o"
b0 n"
b0 m"
b0 l"
b0 k"
0j"
0i"
b0 h"
b0 g"
b0 f"
b0 e"
b0 d"
0c"
b0 b"
b0 a"
b0 `"
b0 _"
b0 ^"
b0 ]"
b0 \"
b0 ["
b0 Z"
b0 Y"
b0 X"
b0 W"
b0 V"
b0 U"
0T"
0S"
b0 R"
b0 Q"
b0 P"
b0 O"
b0 N"
b0 H"
b0 G"
b0 F"
b0 E"
0D"
b0 C"
b0 B"
b100000 A"
0?"
b0 >"
b0 ="
b0 <"
b0 ;"
b0 :"
b0 9"
08"
b0 7"
06"
05"
b0 4"
b0 3"
02"
01"
b0 0"
0/"
0."
0-"
0,"
0+"
0*"
0)"
0("
0'"
b0 &"
b0 %"
b0 $"
b0 #"
b0 ""
b0 !"
b0 ~
b0 }
0|
0{
0z
b0 y
b0 x
1w
b0 v
0u
0t
b0 s
0r
b0 q
1p
b10011 o
0n
0m
0l
0k
0j
0i
0h
0g
b0 f
b0 e
b0 d
b0 c
b0 b
b0 a
b0 `
b0 _
bx ^
b0 ]
0\
b0 [
b0 Z
0Y
b0 X
0W
0V
0U
b0 T
b0 S
0R
0Q
0P
0O
b0 N
0M
b0 L
b0 K
0J
b0 I
b0 H
0G
b0 F
b0 E
0D
0C
0B
0A
0@
b0 ?
0>
bx =
bx <
b0 ;
b0 :
b0 9
b0 8
b0 7
b0 6
b10000000000000000000000000000011 5
04
b0 3
b11111111111111111111111111111111 2
01
b0 0
bx /
0.
b0 -
b0 ,
b0 +
0*
0)
b0 (
1'
bx &
b0 %
1$
1#
1"
b0 !
$end
#10000
b11111110000000010000000100010011 &
b11111110000000010000000100010011 ^
b11111110000000010000000100010011 `$
b11111110000000010000000100010011 '&
b100000 A"
11
#20000
01
#30000
b100000 A"
11
#40000
01
#50000
b100000 A"
11
#60000
01
#70000
b100000 A"
11
#80000
01
#90000
b100000 A"
11
#100000
01
#110000
b100000 A"
11
#120000
01
#130000
b100000 A"
11
#140000
01
#150000
b100000 A"
11
#160000
01
#170000
b100000 A"
11
#180000
01
#190000
b100000 A"
11
